[
  {
    "id": 1,
    "name": "After Hours",
    "date": 1586510976,
    "image": "https://api.deezer.com/album/137217782/image",
    "artistId": 1
  },
  {
    "id": 2,
    "name": "Astronaut In The Ocean",
    "date": 1610548730,
    "image": "https://api.deezer.com/album/197706142/image",
    "artistId": 2
  },
  {
    "id": 3,
    "name": "The Kids Are Coming",
    "date": 1612972572,
    "image": "https://api.deezer.com/album/108770322/image",
    "artistId": 3
  },
  {
    "id": 4,
    "name": "After Hours",
    "date": 1610273188,
    "image": "https://api.deezer.com/album/137217782/image",
    "artistId": 1
  },
  {
    "id": 5,
    "name": "Sin Miedo (del Amor y Otros Demonios) ∞",
    "date": 1614054855,
    "image": "https://api.deezer.com/album/187766792/image",
    "artistId": 5
  },
  {
    "id": 6,
    "name": "DÁKITI",
    "date": 1604222038,
    "image": "https://api.deezer.com/album/182383222/image",
    "artistId": 6
  },
  {
    "id": 7,
    "name": "Justice",
    "date": 1616387056,
    "image": "https://api.deezer.com/album/215962322/image",
    "artistId": 7
  },
  {
    "id": 8,
    "name": "Leave The Door Open",
    "date": 1615008621,
    "image": "https://api.deezer.com/album/211423112/image",
    "artistId": 8
  },
  {
    "id": 9,
    "name": "drivers license",
    "date": 1610273188,
    "image": "https://api.deezer.com/album/196857302/image",
    "artistId": 9
  },
  {
    "id": 10,
    "name": "Fine Line",
    "date": 1589971050,
    "image": "https://api.deezer.com/album/122664252/image",
    "artistId": 10
  },
  {
    "id": 11,
    "name": "Up",
    "date": 1612780060,
    "image": "https://api.deezer.com/album/205396982/image",
    "artistId": 11
  },
  {
    "id": 12,
    "name": "The Business",
    "date": 1614919102,
    "image": "https://api.deezer.com/album/174941092/image",
    "artistId": 12
  },
  {
    "id": 13,
    "name": "Mood (feat. iann dior)",
    "date": 1598348455,
    "image": "https://api.deezer.com/album/161984202/image",
    "artistId": 13
  },
  {
    "id": 14,
    "name": "WHEN WE ALL FALL ASLEEP, WHERE DO WE GO?",
    "date": 1580459750,
    "image": "https://api.deezer.com/album/91598612/image",
    "artistId": 14
  },
  {
    "id": 15,
    "name": "EL ÚLTIMO TOUR DEL MUNDO",
    "date": 1606646405,
    "image": "https://api.deezer.com/album/188972392/image",
    "artistId": 6
  },
  {
    "id": 16,
    "name": "Roses (Imanbek Remix)",
    "date": 1586943981,
    "image": "https://api.deezer.com/album/113965472/image",
    "artistId": 16
  },
  {
    "id": 17,
    "name": "TAKE TIME",
    "date": 1614054855,
    "image": "https://api.deezer.com/album/137365032/image",
    "artistId": 17
  },
  {
    "id": 18,
    "name": "Translation",
    "date": 1612972572,
    "image": "https://api.deezer.com/album/153541502/image",
    "artistId": 18
  },
  {
    "id": 19,
    "name": "Dynamite (DayTime Version)",
    "date": 1599038965,
    "image": "https://api.deezer.com/album/169879342/image",
    "artistId": 19
  },
  {
    "id": 20,
    "name": "Hold On",
    "date": 1615008621,
    "image": "https://api.deezer.com/album/212470822/image",
    "artistId": 7
  },
  {
    "id": 21,
    "name": "Bandido",
    "date": 1609671054,
    "image": "https://api.deezer.com/album/186333922/image",
    "artistId": 21
  },
  {
    "id": 22,
    "name": "Arcade",
    "date": 1613364252,
    "image": "https://api.deezer.com/album/89348682/image",
    "artistId": 22
  },
  {
    "id": 23,
    "name": "Don't Start Now",
    "date": 1580459750,
    "image": "https://api.deezer.com/album/117053822/image",
    "artistId": 23
  },
  {
    "id": 24,
    "name": "Levitating (feat. DaBaby)",
    "date": 1609064885,
    "image": "https://api.deezer.com/album/176151062/image",
    "artistId": 23
  },
  {
    "id": 25,
    "name": "Ride It",
    "date": 1569499491,
    "image": "https://api.deezer.com/album/102886652/image",
    "artistId": 25
  },
  {
    "id": 26,
    "name": "Calling My Phone",
    "date": 1613190734,
    "image": "https://api.deezer.com/album/206302082/image",
    "artistId": 26
  },
  {
    "id": 27,
    "name": "Whoopty",
    "date": 1612972572,
    "image": "https://api.deezer.com/album/184434312/image",
    "artistId": 27
  },
  {
    "id": 28,
    "name": "BICHOTA",
    "date": 1605169505,
    "image": "https://api.deezer.com/album/179932962/image",
    "artistId": 28
  },
  {
    "id": 29,
    "name": "ULTRA",
    "date": 1615091543,
    "image": "https://api.deezer.com/album/211985622/image",
    "artistId": 29
  },
  {
    "id": 30,
    "name": "Breach",
    "date": 1559329856,
    "image": "https://api.deezer.com/album/78031872/image",
    "artistId": 30
  },
  {
    "id": 31,
    "name": "BLAME IT ON BABY",
    "date": 1588241378,
    "image": "https://api.deezer.com/album/142409332/image",
    "artistId": 31
  },
  {
    "id": 32,
    "name": "Hot Pink",
    "date": 1611828546,
    "image": "https://api.deezer.com/album/117680872/image",
    "artistId": 32
  },
  {
    "id": 33,
    "name": "Hawái",
    "date": 1596273656,
    "image": "https://api.deezer.com/album/163017682/image",
    "artistId": 33
  },
  {
    "id": 34,
    "name": "Aqui e Agora, Vol.1 (Ao Vivo)",
    "date": 1615612092,
    "image": "https://api.deezer.com/album/197432152/image",
    "artistId": 34
  },
  {
    "id": 35,
    "name": "Head & Heart (feat. MNEK)",
    "date": 1597136755,
    "image": "https://api.deezer.com/album/157795452/image",
    "artistId": 35
  },
  {
    "id": 36,
    "name": "Fever",
    "date": 1604309788,
    "image": "https://api.deezer.com/album/181920172/image",
    "artistId": 23
  },
  {
    "id": 37,
    "name": "Breaking Me",
    "date": 1589019593,
    "image": "https://api.deezer.com/album/122983832/image",
    "artistId": 37
  },
  {
    "id": 38,
    "name": "Scary Hours 2",
    "date": 1615008621,
    "image": "https://api.deezer.com/album/212457792/image",
    "artistId": 38
  },
  {
    "id": 39,
    "name": "Lonely",
    "date": 1616218586,
    "image": "https://api.deezer.com/album/179934622/image",
    "artistId": 7
  },
  {
    "id": 40,
    "name": "Reloj",
    "date": 1605802121,
    "image": "https://api.deezer.com/album/180557512/image",
    "artistId": 40
  },
  {
    "id": 41,
    "name": "Los Legendarios 001",
    "date": 1616387056,
    "image": "https://api.deezer.com/album/203370702/image",
    "artistId": 41
  },
  {
    "id": 42,
    "name": "JVLIVS II",
    "date": 1616218586,
    "image": "https://api.deezer.com/album/215473432/image",
    "artistId": 42
  },
  {
    "id": 43,
    "name": "WAP (feat. Megan Thee Stallion)",
    "date": 1597051457,
    "image": "https://api.deezer.com/album/165664612/image",
    "artistId": 11
  },
  {
    "id": 44,
    "name": "Therefore I Am",
    "date": 1605438816,
    "image": "https://api.deezer.com/album/185980162/image",
    "artistId": 14
  },
  {
    "id": 45,
    "name": "Positions",
    "date": 1604655788,
    "image": "https://api.deezer.com/album/183019972/image",
    "artistId": 45
  },
  {
    "id": 46,
    "name": "Positions",
    "date": 1612972572,
    "image": "https://api.deezer.com/album/183019992/image",
    "artistId": 45
  },
  {
    "id": 47,
    "name": "Starboy",
    "date": 1610548730,
    "image": "https://api.deezer.com/album/14652356/image",
    "artistId": 1
  },
  {
    "id": 48,
    "name": "lovely",
    "date": 1577439737,
    "image": "https://api.deezer.com/album/61392882/image",
    "artistId": 14
  },
  {
    "id": 49,
    "name": "Platonicos",
    "date": 1594107862,
    "image": "https://api.deezer.com/album/152280052/image",
    "artistId": 49
  },
  {
    "id": 50,
    "name": "Ella No Es Tuya (Remix)",
    "date": 1614054855,
    "image": "https://api.deezer.com/album/203796802/image",
    "artistId": 50
  },
  {
    "id": 51,
    "name": "UN DIA (ONE DAY)",
    "date": 1595846163,
    "image": "https://api.deezer.com/album/161704302/image",
    "artistId": 51
  },
  {
    "id": 52,
    "name": "JVLIVS II",
    "date": 1616218586,
    "image": "https://api.deezer.com/album/215473432/image",
    "artistId": 42
  },
  {
    "id": 53,
    "name": "Justice",
    "date": 1616387056,
    "image": "https://api.deezer.com/album/215962322/image",
    "artistId": 7
  },
  {
    "id": 54,
    "name": "Savage Love (Laxed - Siren Beat)",
    "date": 1592389362,
    "image": "https://api.deezer.com/album/153680822/image",
    "artistId": 54
  },
  {
    "id": 55,
    "name": "Physical",
    "date": 1580637806,
    "image": "https://api.deezer.com/album/128844692/image",
    "artistId": 23
  },
  {
    "id": 56,
    "name": "DREAMCATCHER.SCREAM,METAL",
    "date": 1616218586,
    "image": "https://api.deezer.com/album/197687242/image",
    "artistId": 56
  },
  {
    "id": 57,
    "name": "Out Of Time",
    "date": 1612448178,
    "image": "https://api.deezer.com/album/14581358/image",
    "artistId": 57
  },
  {
    "id": 58,
    "name": "F*CK LOVE (SAVAGE)",
    "date": 1610548730,
    "image": "https://api.deezer.com/album/183871512/image",
    "artistId": 58
  },
  {
    "id": 59,
    "name": "Señorita",
    "date": 1580459750,
    "image": "https://api.deezer.com/album/100856872/image",
    "artistId": 59
  },
  {
    "id": 60,
    "name": "Revelación - EP",
    "date": 1615612092,
    "image": "https://api.deezer.com/album/213739252/image",
    "artistId": 60
  },
  {
    "id": 61,
    "name": "EL ÚLTIMO TOUR DEL MUNDO",
    "date": 1616303554,
    "image": "https://api.deezer.com/album/188972392/image",
    "artistId": 6
  },
  {
    "id": 62,
    "name": "Tattoo (Remix with Camilo)",
    "date": 1606559589,
    "image": "https://api.deezer.com/album/158398762/image",
    "artistId": 40
  },
  {
    "id": 63,
    "name": "Shoot For The Stars Aim For The Moon",
    "date": 1594724299,
    "image": "https://api.deezer.com/album/158393832/image",
    "artistId": 63
  },
  {
    "id": 64,
    "name": "Your Love (9PM)",
    "date": 1616476601,
    "image": "https://api.deezer.com/album/198276362/image",
    "artistId": 64
  },
  {
    "id": 65,
    "name": "Fleur froide (Donum Novae)",
    "date": 1614401184,
    "image": "https://api.deezer.com/album/208456942/image",
    "artistId": 65
  },
  {
    "id": 66,
    "name": "Shoot For The Stars Aim For The Moon",
    "date": 1601458422,
    "image": "https://api.deezer.com/album/158393812/image",
    "artistId": 63
  },
  {
    "id": 67,
    "name": "Relación (Remix)",
    "date": 1616303554,
    "image": "https://api.deezer.com/album/170506562/image",
    "artistId": 67
  },
  {
    "id": 68,
    "name": "Además de Mí (Remix)",
    "date": 1615008621,
    "image": "https://api.deezer.com/album/209637372/image",
    "artistId": 68
  },
  {
    "id": 69,
    "name": "Shape of You",
    "date": 1612972572,
    "image": "https://api.deezer.com/album/14996073/image",
    "artistId": 69
  },
  {
    "id": 70,
    "name": "JVLIVS II",
    "date": 1616218586,
    "image": "https://api.deezer.com/album/215473432/image",
    "artistId": 42
  },
  {
    "id": 71,
    "name": "Hollywood's Bleeding",
    "date": 1612972572,
    "image": "https://api.deezer.com/album/110040592/image",
    "artistId": 71
  },
  {
    "id": 72,
    "name": "Justice",
    "date": 1616387056,
    "image": "https://api.deezer.com/album/215962322/image",
    "artistId": 7
  },
  {
    "id": 73,
    "name": "OASIS",
    "date": 1616303554,
    "image": "https://api.deezer.com/album/101490842/image",
    "artistId": 51
  },
  {
    "id": 74,
    "name": "you broke me first",
    "date": 1616476601,
    "image": "https://api.deezer.com/album/141630082/image",
    "artistId": 74
  },
  {
    "id": 75,
    "name": "Friday (feat. Mufasa & Hypeman) (Dopamine Re-Edit)",
    "date": 1616562857,
    "image": "https://api.deezer.com/album/193464972/image",
    "artistId": 75
  },
  {
    "id": 76,
    "name": "Life Is Good (feat. Drake)",
    "date": 1613451145,
    "image": "https://api.deezer.com/album/125628232/image",
    "artistId": 76
  },
  {
    "id": 77,
    "name": "Memories",
    "date": 1569945445,
    "image": "https://api.deezer.com/album/111254482/image",
    "artistId": 77
  },
  {
    "id": 78,
    "name": "Prisoner (feat. Dua Lipa)",
    "date": 1616476601,
    "image": "https://api.deezer.com/album/186730072/image",
    "artistId": 78
  },
  {
    "id": 79,
    "name": "Despeinada",
    "date": 1616303554,
    "image": "https://api.deezer.com/album/170953892/image",
    "artistId": 79
  },
  {
    "id": 80,
    "name": "Lemonade",
    "date": 1597826824,
    "image": "https://api.deezer.com/album/165989312/image",
    "artistId": 80
  },
  {
    "id": 81,
    "name": "La Nota",
    "date": 1616303554,
    "image": "https://api.deezer.com/album/176594342/image",
    "artistId": 81
  },
  {
    "id": 82,
    "name": "Ghaba",
    "date": 1616303554,
    "image": "https://api.deezer.com/album/210393922/image",
    "artistId": 82
  },
  {
    "id": 83,
    "name": "Monster",
    "date": 1616476601,
    "image": "https://api.deezer.com/album/187735922/image",
    "artistId": 59
  },
  {
    "id": 84,
    "name": "Som No Talo",
    "date": 1614228630,
    "image": "https://api.deezer.com/album/198598342/image",
    "artistId": 84
  },
  {
    "id": 85,
    "name": "En Passant Pécho (Bande originale inspirée du film)",
    "date": 1616387056,
    "image": "https://api.deezer.com/album/208642752/image",
    "artistId": 85
  },
  {
    "id": 86,
    "name": "Wellerman (Sea Shanty / 220 KID x Billen Ted Remix)",
    "date": 1616476601,
    "image": "https://api.deezer.com/album/201834742/image",
    "artistId": 86
  },
  {
    "id": 87,
    "name": "BEBÉ",
    "date": 1606818289,
    "image": "https://api.deezer.com/album/187144792/image",
    "artistId": 87
  },
  {
    "id": 88,
    "name": "Afterglow",
    "date": 1616562857,
    "image": "https://api.deezer.com/album/194866772/image",
    "artistId": 69
  },
  {
    "id": 89,
    "name": "evermore",
    "date": 1616476601,
    "image": "https://api.deezer.com/album/192580092/image",
    "artistId": 89
  },
  {
    "id": 90,
    "name": "MAMACITA",
    "date": 1616562857,
    "image": "https://api.deezer.com/album/140483862/image",
    "artistId": 18
  },
  {
    "id": 91,
    "name": "Facas (Ao Vivo)",
    "date": 1616737570,
    "image": "https://api.deezer.com/album/177801002/image",
    "artistId": 91
  },
  {
    "id": 92,
    "name": "Toto IV",
    "date": 1616737570,
    "image": "https://api.deezer.com/album/116670/image",
    "artistId": 92
  },
  {
    "id": 93,
    "name": "Curtain Call: The Hits",
    "date": 1616669412,
    "image": "https://api.deezer.com/album/119606/image",
    "artistId": 93
  },
  {
    "id": 94,
    "name": "A Night At The Opera (2011 Remaster)",
    "date": 1616737570,
    "image": "https://api.deezer.com/album/915785/image",
    "artistId": 94
  },
  {
    "id": 95,
    "name": "JVLIVS II",
    "date": 1616218586,
    "image": "https://api.deezer.com/album/215473432/image",
    "artistId": 42
  },
  {
    "id": 96,
    "name": "I Love You.",
    "date": 1616669412,
    "image": "https://api.deezer.com/album/6505633/image",
    "artistId": 96
  },
  {
    "id": 97,
    "name": "Uptown Special",
    "date": 1616669412,
    "image": "https://api.deezer.com/album/9411436/image",
    "artistId": 97
  },
  {
    "id": 98,
    "name": "No Me Conoce (Remix)",
    "date": 1616737570,
    "image": "https://api.deezer.com/album/96641222/image",
    "artistId": 98
  },
  {
    "id": 99,
    "name": "Chromatica",
    "date": 1616669412,
    "image": "https://api.deezer.com/album/151092632/image",
    "artistId": 99
  },
  {
    "id": 100,
    "name": "Blurryface",
    "date": 1616737570,
    "image": "https://api.deezer.com/album/10236282/image",
    "artistId": 100
  }
]
